module federation/products

go 1.17

require (
	github.com/99designs/gqlgen v0.14.0
	github.com/agnivade/levenshtein v1.1.1 // indirect
	github.com/gorilla/websocket v1.4.2 // indirect
	github.com/hashicorp/golang-lru v0.5.4 // indirect
	github.com/joho/godotenv v1.4.0
	github.com/mitchellh/mapstructure v1.4.2 // indirect
	github.com/vektah/gqlparser/v2 v2.2.0
	go.mongodb.org/mongo-driver v1.7.3
)

require (
	github.com/go-stack/stack v1.8.1 // indirect
	github.com/golang/snappy v0.0.4 // indirect
	github.com/klauspost/compress v1.13.6 // indirect
	github.com/pkg/errors v0.9.1 // indirect
	github.com/xdg-go/pbkdf2 v1.0.0 // indirect
	github.com/xdg-go/scram v1.0.2 // indirect
	github.com/xdg-go/stringprep v1.0.2 // indirect
	github.com/youmark/pkcs8 v0.0.0-20201027041543-1326539a0a0a // indirect
	golang.org/x/crypto v0.0.0-20210921155107-089bfa567519 // indirect
	golang.org/x/sync v0.0.0-20210220032951-036812b2e83c // indirect
	golang.org/x/text v0.3.7 // indirect
)
